[07/10/2017 20:56:41] - A pasta 'Pictures' não foi encontrada, então não serão carregadas as imagens.
[07/10/2017 21:00:27] - Configurações salvas com sucesso.
[07/10/2017 21:00:46] - Configurações salvas com sucesso.
